<svg width="25" height="24" viewBox="0 0 25 24" fill="none" xmlns="http://www.w3.org/2000/svg">
<path d="M20.2466 20L15.3427 15.0962M15.3427 15.0962C16.519 13.9199 17.2466 12.2949 17.2466 10.5C17.2466 6.91015 14.3364 4 10.7466 4C7.1567 4 4.24655 6.91015 4.24655 10.5C4.24655 14.0899 7.1567 17 10.7466 17C12.5415 17 14.1665 16.2725 15.3427 15.0962Z" stroke="#333333" stroke-width="1.8" stroke-linecap="round" stroke-linejoin="round"/>
</svg>
